<svg width="30" height="30" viewBox="0 0 30 30" fill="none" xmlns="http://www.w3.org/2000/svg">
<g id="location_on">
<mask id="mask0_2256_16550" style="mask-type:alpha" maskUnits="userSpaceOnUse" x="0" y="0" width="30" height="30">
<rect id="Bounding box" width="30" height="30" fill="#D9D9D9"/>
</mask>
<g mask="url(#mask0_2256_16550)">
<path id="location_on_2" d="M15.0021 14.8317C15.6241 14.8317 16.1558 14.6102 16.5973 14.1673C17.0388 13.7244 17.2596 13.1919 17.2596 12.57C17.2596 11.948 17.0381 11.4163 16.5952 10.9748C16.1523 10.5333 15.6199 10.3125 14.9979 10.3125C14.3759 10.3125 13.8442 10.534 13.4027 10.9769C12.9612 11.4198 12.7404 11.9522 12.7404 12.5742C12.7404 13.1962 12.9619 13.7279 13.4048 14.1694C13.8477 14.6109 14.3801 14.8317 15.0021 14.8317ZM15 24.3918C17.4455 22.2027 19.3169 20.103 20.6142 18.0925C21.9115 16.0821 22.5601 14.3213 22.5601 12.8101C22.5601 10.5312 21.8361 8.65784 20.3882 7.18988C18.9403 5.72192 17.1442 4.98794 15 4.98794C12.8558 4.98794 11.0597 5.72192 9.61178 7.18988C8.16387 8.65784 7.43991 10.5312 7.43991 12.8101C7.43991 14.3213 8.08855 16.0821 9.38582 18.0925C10.6831 20.103 12.5545 22.2027 15 24.3918ZM15 26.8869C11.8542 24.161 9.49522 21.6241 7.9231 19.2764C6.35099 16.9287 5.56494 14.7732 5.56494 12.8101C5.56494 9.92548 6.49804 7.59016 8.36422 5.80409C10.2304 4.01803 12.4423 3.125 15 3.125C17.5577 3.125 19.7696 4.01803 21.6358 5.80409C23.502 7.59016 24.4351 9.92548 24.4351 12.8101C24.4351 14.7732 23.649 16.9287 22.0769 19.2764C20.5048 21.6241 18.1458 24.161 15 26.8869Z" fill="#222222"/>
</g>
</g>
</svg>
