<svg width="24" height="24" viewBox="0 0 24 24" fill="none" xmlns="http://www.w3.org/2000/svg">
<g id="reply">
<mask id="mask0_2399_15467" style="mask-type:alpha" maskUnits="userSpaceOnUse" x="0" y="0" width="24" height="24">
<rect id="Bounding box" width="24" height="24" fill="#D9D9D9"/>
</mask>
<g mask="url(#mask0_2399_15467)">
<path id="reply_2" d="M19 18.4995V14.9995C19 14.1021 18.6827 13.3361 18.0481 12.7014C17.4134 12.0668 16.6474 11.7495 15.75 11.7495H6.37302L10.223 15.5995L9.15383 16.6534L3.5 10.9995L9.15383 5.3457L10.223 6.39953L6.37302 10.2496H15.75C17.0628 10.2496 18.1826 10.713 19.1096 11.6399C20.0365 12.5668 20.5 13.6867 20.5 14.9995V18.4995H19Z" fill="#5726DA"/>
</g>
</g>
</svg>
