<svg width="40" height="40" viewBox="0 0 40 40" fill="none" xmlns="http://www.w3.org/2000/svg">
<circle cx="20" cy="20" r="20" fill="#EAE4FF"/>
<mask id="mask0_2650_3549" style="mask-type:alpha" maskUnits="userSpaceOnUse" x="9" y="9" width="22" height="22">
<rect x="9.33398" y="9.33398" width="21.3333" height="21.3333" fill="#D9D9D9"/>
</mask>
<g mask="url(#mask0_2650_3549)">
<path d="M13.7778 28C13.2889 28 12.8704 27.8259 12.5222 27.4778C12.1741 27.1296 12 26.7111 12 26.2222V13.7778C12 13.2889 12.1741 12.8704 12.5222 12.5222C12.8704 12.1741 13.2889 12 13.7778 12H26.2222C26.7111 12 27.1296 12.1741 27.4778 12.5222C27.8259 12.8704 28 13.2889 28 13.7778V26.2222C28 26.7111 27.8259 27.1296 27.4778 27.4778C27.1296 27.8259 26.7111 28 26.2222 28H13.7778ZM13.7778 26.2222H26.2222V16.4444H13.7778V26.2222Z" fill="#5726DA"/>
</g>
</svg>
