<svg width="30" height="30" viewBox="0 0 30 30" fill="none" xmlns="http://www.w3.org/2000/svg">
<mask id="mask0_2256_16543" style="mask-type:alpha" maskUnits="userSpaceOnUse" x="0" y="0" width="30" height="30">
<rect width="30" height="30" fill="#D9D9D9"/>
</mask>
<g mask="url(#mask0_2256_16543)">
<path d="M6.875 25.9374V5.625H16.9951L17.4951 8.125H24.3749V19.3749H16.7548L16.2548 16.8749H8.74997V25.9374H6.875ZM18.3125 17.5H22.5V9.99997H15.9375L15.4375 7.49997H8.74997V15H17.8125L18.3125 17.5Z" fill="#222222"/>
</g>
</svg>
