<svg width="30" height="30" viewBox="0 0 30 30" fill="none" xmlns="http://www.w3.org/2000/svg">
<g id="moving">
<mask id="mask0_2256_17240" style="mask-type:alpha" maskUnits="userSpaceOnUse" x="0" y="0" width="30" height="30">
<rect id="Bounding box" width="30" height="30" fill="#D9D9D9"/>
</mask>
<g mask="url(#mask0_2256_17240)">
<path id="moving_2" d="M4.18996 22.0673L2.87268 20.75L9.28131 14.3413C9.95439 13.6763 10.7657 13.3417 11.7152 13.3377C12.6647 13.3337 13.476 13.6683 14.1491 14.3413L15.5866 15.7788C15.9007 16.0929 16.2717 16.248 16.6996 16.244C17.1275 16.24 17.4985 16.0849 17.8126 15.7788L23.916 9.68744H20.2525V7.8125H27.1274V14.6874H25.2525V11.0239L19.1298 17.1153C18.4568 17.7804 17.6435 18.1149 16.69 18.1189C15.7364 18.1229 14.9271 17.7924 14.2621 17.1273L12.7933 15.6586C12.492 15.3573 12.1263 15.2087 11.696 15.2127C11.2657 15.2167 10.8999 15.3653 10.5986 15.6586L4.18996 22.0673Z" fill="#5726DA"/>
</g>
</g>
</svg>
