<svg width="75" height="75" viewBox="0 0 75 75" fill="none" xmlns="http://www.w3.org/2000/svg">
<g clip-path="url(#clip0_2274_2965)">
<path d="M37.6107 74.7761C58.2596 74.7761 74.9988 58.0369 74.9988 37.3881C74.9988 16.7392 58.2596 0 37.6107 0C16.9619 0 0.222656 16.7392 0.222656 37.3881C0.222656 58.0369 16.9619 74.7761 37.6107 74.7761Z" fill="#EEE9FB"/>
<mask id="mask0_2274_2965" style="mask-type:luminance" maskUnits="userSpaceOnUse" x="0" y="0" width="75" height="75">
<path d="M37.6107 74.7761C58.2596 74.7761 74.9988 58.0369 74.9988 37.3881C74.9988 16.7392 58.2596 0 37.6107 0C16.9619 0 0.222656 16.7392 0.222656 37.3881C0.222656 58.0369 16.9619 74.7761 37.6107 74.7761Z" fill="white"/>
</mask>
<g mask="url(#mask0_2274_2965)">
<path d="M-11.082 21.7161L-11.9775 20.9325C-9.40291 17.7982 -6.38052 14.1042 -2.68649 11.4176C1.34336 8.39522 5.93291 7.05194 9.96276 7.4997C13.6568 7.94746 16.9031 9.73851 20.0374 11.5296C23.3956 13.4325 26.5299 15.2236 30.112 15.4475C35.3732 15.7833 40.4105 12.7609 45.0001 9.51463C49.2538 6.49224 54.6269 2.91015 60.5598 3.02209C65.709 3.13403 70.9702 6.26836 74.7762 11.6415L73.8807 12.4251C70.1866 7.38776 65.3732 4.47731 60.5598 4.36537C60.4478 4.36537 60.3359 4.36537 60.224 4.36537C54.8508 4.36537 50.0374 7.72358 45.6717 10.634C40.8583 13.9922 35.709 17.2385 30.0001 16.7907C26.0822 16.5669 22.724 14.5519 19.3657 12.7609C16.3434 11.0818 13.0971 9.29075 9.73888 8.84299C5.93291 8.39523 1.79112 9.73851 -2.12679 12.537C-5.59694 15.1116 -8.50739 18.6937 -11.082 21.7161Z" fill="#9A7DE9"/>
<path d="M-10.1872 25.2974L-11.3066 24.7377C-7.05291 16.79 3.13366 12.4243 11.865 14.9989C14.5516 15.7825 17.1262 17.2377 19.5889 18.581C22.9471 20.3721 26.0814 22.1631 29.6635 22.4989C35.2605 23.1706 40.7456 20.3721 46.2307 17.1258C51.0441 14.3273 57.0889 10.8571 63.4695 11.3049C70.4098 11.8646 76.1187 16.9019 81.156 22.387L80.2605 23.1706C75.3351 17.9094 69.962 12.984 63.3575 12.5362C57.4247 12.0885 51.8277 15.3348 46.9023 18.1333C41.1934 21.3795 35.5963 24.29 29.6635 23.6183C25.8575 23.1706 22.4993 21.3795 19.1411 19.5885C16.7904 18.2452 14.2157 16.9019 11.6411 16.1183C3.35754 13.7676 -6.15739 17.7974 -10.1872 25.2974Z" fill="#9A7DE9"/>
<path d="M90.5589 42.7614C86.5291 37.7241 81.9395 32.1271 76.2306 27.8734C70.0738 23.3957 63.3574 21.2689 57.2007 21.9405C52.4992 22.5002 48.2455 24.5151 43.6559 26.8659L43.0962 27.2017C39.85 28.8808 36.4918 30.6719 32.7977 31.6793C29.7753 32.5748 25.1858 33.2465 20.932 31.4554C18.5813 30.448 16.4544 28.8808 14.5515 27.3137C12.8723 25.9704 11.0813 24.6271 9.17832 23.7316C5.59623 22.0525 1.3425 21.8286 -2.35153 23.2838C-6.04556 24.739 -9.06795 27.7614 -10.5232 31.4554L-11.6426 31.0077C-10.0754 26.9778 -6.82914 23.7316 -2.79929 22.0525C1.23056 20.4853 5.82011 20.5972 9.73802 22.5002C11.7529 23.5077 13.544 24.851 15.335 26.1942C17.35 27.7614 19.2529 29.2166 21.4918 30.1122C25.4097 31.6793 29.7753 31.1196 32.5738 30.2241C36.044 29.2166 39.4022 27.5375 42.6485 25.8584L43.2082 25.5226C47.6858 23.5077 52.2753 21.2689 57.0888 20.7092C63.4694 20.0375 70.5216 22.1644 76.9022 26.8659C82.7231 31.1196 87.3126 36.9405 91.4544 41.9778L90.5589 42.7614Z" fill="#9A7DE9"/>
<path d="M34.8127 51.6038C34.7007 51.6038 34.7007 51.6038 34.5888 51.6038C28.544 51.4918 23.0589 48.4695 18.0216 45.1112C17.35 44.6635 16.7903 44.3277 16.1186 43.8799C11.8649 41.0814 7.61118 38.059 2.68581 36.8277C-2.3515 35.4844 -9.17986 36.3799 -12.4261 41.4172L-13.4336 40.7456C-9.8515 35.2605 -2.3515 34.253 3.02163 35.5963C8.17088 36.9396 12.5366 39.8501 16.9022 42.7605C17.5739 43.2083 18.1336 43.5441 18.8052 43.9918C23.6186 47.2381 28.9918 50.2605 34.7007 50.2605C34.8127 50.2605 34.8127 50.2605 34.9246 50.2605C41.753 50.2605 47.7978 46.2307 53.6186 42.3127C59.6634 38.2829 66.2679 34.365 73.4321 34.9247C81.3798 35.5963 87.6485 41.753 93.3575 47.9098L92.4619 48.6933C86.641 42.6486 80.8201 36.9396 73.2082 36.268C66.4918 35.7083 60.1112 39.5142 54.1784 43.4321C48.4694 47.2381 41.9769 51.6038 34.8127 51.6038Z" fill="#9A7DE9"/>
<path d="M41.5286 64.9247C41.1928 64.9247 40.857 64.9247 40.5212 64.9247C35.5958 64.5889 31.2301 61.5665 28.4316 59.2157C27.5361 58.4322 26.6406 57.7605 25.7451 56.9769C23.2824 54.962 20.8197 52.8351 18.0212 51.268C9.96148 47.0142 -0.672851 48.3575 -7.27733 54.6262L-8.17285 53.7307C-1.12061 47.1262 10.0734 45.671 18.5809 50.1486C21.4913 51.7157 24.066 53.8426 26.5286 55.9695C27.4242 56.7531 28.3197 57.5366 29.2152 58.2083C31.9018 60.3351 36.0436 63.3575 40.6331 63.5814C44.7749 63.9172 49.0286 62.2381 54.2898 58.3202C55.2973 57.5366 56.3048 56.7531 57.3122 55.9695C60.3346 53.6187 63.4689 51.156 67.051 49.5889C71.6406 47.5739 78.1331 47.3501 82.163 51.268L81.2674 52.1635C77.6854 48.6933 71.7525 48.9172 67.4988 50.8202C64.0286 52.2754 61.0063 54.7381 57.9839 56.9769C56.9764 57.7605 55.9689 58.5441 54.9615 59.3277C49.9242 63.2456 45.6704 64.9247 41.5286 64.9247Z" fill="#9A7DE9"/>
<path d="M78.916 38.6195C76.2295 34.8135 72.6474 31.5673 68.1698 29.8882C63.8041 28.321 58.6548 28.5449 54.7369 31.1195C49.4757 34.7016 47.2369 41.9777 41.416 44.5523C38.5056 45.8956 35.1474 45.7837 32.0131 46.4553C26.416 47.6867 21.3787 51.6046 19.1399 56.9777C16.9011 62.2389 17.7966 68.8434 21.4907 73.2091C25.1847 77.6867 31.0056 79.5897 36.7145 80.7091C46.3414 82.612 57.0877 82.612 65.2593 77.127C69.7369 74.1046 73.0951 69.7389 75.5578 64.9255C78.0205 60.112 79.6996 54.9628 81.2668 49.9255L85.0728 51.0449C83.5056 46.6792 81.6026 42.4255 78.916 38.6195Z" fill="#5726DA"/>
<path d="M30.6714 17.1265C30.2236 18.9175 30.6714 20.9324 32.1266 21.9399C33.6937 22.9474 35.9326 22.4996 37.4997 21.4921C39.0669 20.4847 40.2982 18.9175 41.7534 17.6862C43.2087 16.4548 45.1117 15.5593 47.0146 16.0071C48.9176 16.4548 50.149 18.3578 50.4848 20.2608C50.8206 22.1638 50.3728 24.0668 49.8131 25.9697C49.0296 28.6563 47.7982 31.3429 45.6714 33.2459C42.8728 35.5966 38.6191 36.0444 35.149 34.7011C31.6788 33.3578 29.1042 30.3354 27.649 26.9772C26.1937 23.619 25.8579 19.813 26.0818 16.119C26.1937 14.4399 26.4176 12.7608 27.3131 11.4175C28.2087 10.0742 29.7758 8.95482 31.343 9.29064C36.3803 9.85034 31.2311 14.9996 30.6714 17.1265Z" fill="#7951E1"/>
<path d="M10.634 31.7898C8.17127 34.0286 7.05186 37.7226 8.17127 40.745C9.40261 44.1032 13.0966 46.2301 16.5668 46.1181C20.7086 45.8943 24.5145 42.648 25.2981 38.6181C25.8578 35.5958 24.8504 32.4614 22.7235 30.2226C20.7086 28.0958 18.2459 28.7674 15.6713 29.3271C13.7683 29.7749 11.9772 30.5584 10.634 31.7898Z" fill="#FFA900"/>
<path d="M29.2154 44.2151C29.5512 44.327 29.9989 44.327 30.3348 44.1032C30.6706 43.8793 31.0064 43.6554 31.3422 43.3196C32.3497 41.7524 31.5661 40.2972 29.7751 40.9688C28.3198 41.4166 27.2004 43.6554 29.2154 44.2151Z" fill="#FFA900"/>
<path d="M17.2377 56.9781C17.5736 57.6497 18.3571 58.2094 19.1407 58.3214C20.0362 58.4333 20.8198 57.9855 21.3795 57.3139C21.9392 56.6423 22.2751 55.8587 22.4989 54.9632C22.9467 53.284 23.5064 49.1423 21.0437 48.6945C19.1407 48.3587 17.4616 50.7094 17.0139 52.2766C16.5661 53.6199 16.4542 55.6348 17.2377 56.9781Z" fill="#FFA900"/>
<path d="M30.1105 53.7321C29.6627 54.2918 29.3269 55.0753 29.5508 55.747C29.7746 56.5306 30.6702 56.9783 31.4537 57.0903C32.6851 57.3141 34.0284 57.2022 35.1478 56.6425C36.2672 56.0828 37.0508 54.8515 37.2746 53.6201C37.3866 52.7246 37.0508 51.8291 36.3791 51.2694C34.3642 49.9261 31.2299 52.1649 30.1105 53.7321Z" fill="#FFA900"/>
<path d="M40.0731 46.4548C40.0731 46.9026 40.1851 47.3503 40.409 47.6861C40.6328 48.1339 40.9687 48.4697 41.4164 48.4697C42.2 48.5817 42.9836 47.91 43.4313 47.2384C44.4388 45.7832 46.006 41.8653 43.2075 41.1936C40.6328 40.8578 39.9612 44.8876 40.0731 46.4548Z" fill="#FFA900"/>
</g>
</g>
<defs>
<clipPath id="clip0_2274_2965">
<rect width="75" height="75" fill="white"/>
</clipPath>
</defs>
</svg>
